simulation/qsim/fechadura.msim.vcd
$comment
	File created using the following command:
		vcd file fechadura.msim.vcd -direction
$end
$date
	Sat Jun 25 10:11:20 2022
$end
$version
	ModelSim Version 2020.1
$end
$timescale
	1ps
$end

$scope module fechadura_vhd_vec_tst $end
$var wire 1 ! clock $end
$var wire 1 " display7seg1 [0] $end
$var wire 1 # display7seg1 [1] $end
$var wire 1 $ display7seg1 [2] $end
$var wire 1 % display7seg1 [3] $end
$var wire 1 & display7seg1 [4] $end
$var wire 1 ' display7seg1 [5] $end
$var wire 1 ( display7seg1 [6] $end
$var wire 1 ) display7seg2 [0] $end
$var wire 1 * display7seg2 [1] $end
$var wire 1 + display7seg2 [2] $end
$var wire 1 , display7seg2 [3] $end
$var wire 1 - display7seg2 [4] $end
$var wire 1 . display7seg2 [5] $end
$var wire 1 / display7seg2 [6] $end
$var wire 1 0 display7seg3 [0] $end
$var wire 1 1 display7seg3 [1] $end
$var wire 1 2 display7seg3 [2] $end
$var wire 1 3 display7seg3 [3] $end
$var wire 1 4 display7seg3 [4] $end
$var wire 1 5 display7seg3 [5] $end
$var wire 1 6 display7seg3 [6] $end
$var wire 1 7 display7seg4 [0] $end
$var wire 1 8 display7seg4 [1] $end
$var wire 1 9 display7seg4 [2] $end
$var wire 1 : display7seg4 [3] $end
$var wire 1 ; display7seg4 [4] $end
$var wire 1 < display7seg4 [5] $end
$var wire 1 = display7seg4 [6] $end
$var wire 1 > led_acerto $end
$var wire 1 ? led_erro1 $end
$var wire 1 @ led_erro2 $end
$var wire 1 A led_erro3 $end
$var wire 1 B switches [9] $end
$var wire 1 C switches [8] $end
$var wire 1 D switches [7] $end
$var wire 1 E switches [6] $end
$var wire 1 F switches [5] $end
$var wire 1 G switches [4] $end
$var wire 1 H switches [3] $end
$var wire 1 I switches [2] $end
$var wire 1 J switches [1] $end
$var wire 1 K switches [0] $end

$scope module i1 $end
$var wire 1 L gnd $end
$var wire 1 M vcc $end
$var wire 1 N unknown $end
$var wire 1 O devoe $end
$var wire 1 P devclrn $end
$var wire 1 Q devpor $end
$var wire 1 R ww_devoe $end
$var wire 1 S ww_devclrn $end
$var wire 1 T ww_devpor $end
$var wire 1 U ww_clock $end
$var wire 1 V ww_switches [9] $end
$var wire 1 W ww_switches [8] $end
$var wire 1 X ww_switches [7] $end
$var wire 1 Y ww_switches [6] $end
$var wire 1 Z ww_switches [5] $end
$var wire 1 [ ww_switches [4] $end
$var wire 1 \ ww_switches [3] $end
$var wire 1 ] ww_switches [2] $end
$var wire 1 ^ ww_switches [1] $end
$var wire 1 _ ww_switches [0] $end
$var wire 1 ` ww_led_acerto $end
$var wire 1 a ww_led_erro1 $end
$var wire 1 b ww_led_erro2 $end
$var wire 1 c ww_led_erro3 $end
$var wire 1 d ww_display7seg1 [0] $end
$var wire 1 e ww_display7seg1 [1] $end
$var wire 1 f ww_display7seg1 [2] $end
$var wire 1 g ww_display7seg1 [3] $end
$var wire 1 h ww_display7seg1 [4] $end
$var wire 1 i ww_display7seg1 [5] $end
$var wire 1 j ww_display7seg1 [6] $end
$var wire 1 k ww_display7seg2 [0] $end
$var wire 1 l ww_display7seg2 [1] $end
$var wire 1 m ww_display7seg2 [2] $end
$var wire 1 n ww_display7seg2 [3] $end
$var wire 1 o ww_display7seg2 [4] $end
$var wire 1 p ww_display7seg2 [5] $end
$var wire 1 q ww_display7seg2 [6] $end
$var wire 1 r ww_display7seg3 [0] $end
$var wire 1 s ww_display7seg3 [1] $end
$var wire 1 t ww_display7seg3 [2] $end
$var wire 1 u ww_display7seg3 [3] $end
$var wire 1 v ww_display7seg3 [4] $end
$var wire 1 w ww_display7seg3 [5] $end
$var wire 1 x ww_display7seg3 [6] $end
$var wire 1 y ww_display7seg4 [0] $end
$var wire 1 z ww_display7seg4 [1] $end
$var wire 1 { ww_display7seg4 [2] $end
$var wire 1 | ww_display7seg4 [3] $end
$var wire 1 } ww_display7seg4 [4] $end
$var wire 1 ~ ww_display7seg4 [5] $end
$var wire 1 !! ww_display7seg4 [6] $end
$var wire 1 "! \~QUARTUS_CREATED_GND~I_combout\ $end
$var wire 1 #! \clock~input_o\ $end
$var wire 1 $! \clock~inputCLKENA0_outclk\ $end
$var wire 1 %! \switches[3]~input_o\ $end
$var wire 1 &! \switches[0]~input_o\ $end
$var wire 1 '! \switches[5]~input_o\ $end
$var wire 1 (! \switches[8]~input_o\ $end
$var wire 1 )! \switches[1]~input_o\ $end
$var wire 1 *! \Equal0~0_combout\ $end
$var wire 1 +! \switches[9]~input_o\ $end
$var wire 1 ,! \switches[6]~input_o\ $end
$var wire 1 -! \switches[7]~input_o\ $end
$var wire 1 .! \Equal0~1_combout\ $end
$var wire 1 /! \Equal2~0_combout\ $end
$var wire 1 0! \switches[2]~input_o\ $end
$var wire 1 1! \switches[4]~input_o\ $end
$var wire 1 2! \Equal1~1_combout\ $end
$var wire 1 3! \WideNor0~3_combout\ $end
$var wire 1 4! \WideNor0~4_combout\ $end
$var wire 1 5! \Equal1~0_combout\ $end
$var wire 1 6! \WideNor0~1_combout\ $end
$var wire 1 7! \Equal7~0_combout\ $end
$var wire 1 8! \Selector1~0_combout\ $end
$var wire 1 9! \WideNor0~2_combout\ $end
$var wire 1 :! \Equal7~1_combout\ $end
$var wire 1 ;! \Selector2~0_combout\ $end
$var wire 1 <! \Equal6~0_combout\ $end
$var wire 1 =! \WideNor0~0_combout\ $end
$var wire 1 >! \Selector2~1_combout\ $end
$var wire 1 ?! \Selector0~0_combout\ $end
$var wire 1 @! \Selector0~1_combout\ $end
$var wire 1 A! \Selector1~1_combout\ $end
$var wire 1 B! \Selector1~2_combout\ $end
$var wire 1 C! \Selector3~0_combout\ $end
$var wire 1 D! \Equal10~0_combout\ $end
$var wire 1 E! \Selector13~1_combout\ $end
$var wire 1 F! \num_erros[3]~0_combout\ $end
$var wire 1 G! \num_erros[3]~1_combout\ $end
$var wire 1 H! \num_erros[3]~2_combout\ $end
$var wire 1 I! \Selector20~0_combout\ $end
$var wire 1 J! \num_erros[3]~3_combout\ $end
$var wire 1 K! \Selector19~0_combout\ $end
$var wire 1 L! \Add0~0_combout\ $end
$var wire 1 M! \num_erros[2]~4_combout\ $end
$var wire 1 N! \Add0~1_combout\ $end
$var wire 1 O! \num_erros[3]~5_combout\ $end
$var wire 1 P! \led_erro1~0_combout\ $end
$var wire 1 Q! \Selector13~0_combout\ $end
$var wire 1 R! \Selector13~2_combout\ $end
$var wire 1 S! \estado.a~q\ $end
$var wire 1 T! \Selector14~0_combout\ $end
$var wire 1 U! \Selector14~1_combout\ $end
$var wire 1 V! \estado.b~q\ $end
$var wire 1 W! \Selector15~0_combout\ $end
$var wire 1 X! \estado.c~q\ $end
$var wire 1 Y! \estado.d~0_combout\ $end
$var wire 1 Z! \estado.d~q\ $end
$var wire 1 [! \led_acerto~0_combout\ $end
$var wire 1 \! \led_acerto~reg0_q\ $end
$var wire 1 ]! \LessThan0~0_combout\ $end
$var wire 1 ^! \Selector4~2_combout\ $end
$var wire 1 _! \Selector4~1_combout\ $end
$var wire 1 `! \Selector21~0_combout\ $end
$var wire 1 a! \Selector21~1_combout\ $end
$var wire 1 b! \Selector4~0_combout\ $end
$var wire 1 c! \Selector4~3_combout\ $end
$var wire 1 d! \Selector4~4_combout\ $end
$var wire 1 e! \led_erro1~reg0_q\ $end
$var wire 1 f! \Equal13~0_combout\ $end
$var wire 1 g! \Selector21~3_combout\ $end
$var wire 1 h! \Selector21~2_combout\ $end
$var wire 1 i! \Selector21~5_combout\ $end
$var wire 1 j! \Selector21~4_combout\ $end
$var wire 1 k! \Selector21~6_combout\ $end
$var wire 1 l! \led_erro2~reg0_q\ $end
$var wire 1 m! \Equal13~1_combout\ $end
$var wire 1 n! \Selector22~0_combout\ $end
$var wire 1 o! \Selector22~1_combout\ $end
$var wire 1 p! \Selector22~3_combout\ $end
$var wire 1 q! \Selector22~2_combout\ $end
$var wire 1 r! \Selector22~4_combout\ $end
$var wire 1 s! \led_erro3~reg0_q\ $end
$var wire 1 t! \display7seg2~0_combout\ $end
$var wire 1 u! \Selector11~0_combout\ $end
$var wire 1 v! \display7seg1[6]~reg0_q\ $end
$var wire 1 w! \Selector10~0_combout\ $end
$var wire 1 x! \display7seg1[5]~reg0_q\ $end
$var wire 1 y! \Selector9~0_combout\ $end
$var wire 1 z! \display7seg1[4]~reg0_q\ $end
$var wire 1 {! \Selector8~0_combout\ $end
$var wire 1 |! \display7seg1[3]~reg0_q\ $end
$var wire 1 }! \Selector7~0_combout\ $end
$var wire 1 ~! \display7seg1[2]~reg0_q\ $end
$var wire 1 !" \Selector6~0_combout\ $end
$var wire 1 "" \display7seg1[1]~reg0_q\ $end
$var wire 1 #" \Selector5~0_combout\ $end
$var wire 1 $" \display7seg1[0]~reg0_q\ $end
$var wire 1 %" \display7seg2[5]~reg0feeder_combout\ $end
$var wire 1 &" \display7seg2[5]~reg0_q\ $end
$var wire 1 '" \display7seg2[3]~reg0feeder_combout\ $end
$var wire 1 (" \display7seg2[3]~reg0_q\ $end
$var wire 1 )" \Selector12~0_combout\ $end
$var wire 1 *" \display7seg2[2]~reg0_q\ $end
$var wire 1 +" \display7seg2[1]~reg0_q\ $end
$var wire 1 ," \display7seg2[0]~reg0_q\ $end
$var wire 1 -" \display7seg3[5]~reg0feeder_combout\ $end
$var wire 1 ." \display7seg3[5]~reg0_q\ $end
$var wire 1 /" \display7seg3[3]~reg0feeder_combout\ $end
$var wire 1 0" \display7seg3[3]~reg0_q\ $end
$var wire 1 1" \display7seg3[2]~reg0feeder_combout\ $end
$var wire 1 2" \display7seg3[2]~reg0_q\ $end
$var wire 1 3" \display7seg3[1]~reg0_q\ $end
$var wire 1 4" \display7seg3[0]~reg0feeder_combout\ $end
$var wire 1 5" \display7seg3[0]~reg0_q\ $end
$var wire 1 6" \display7seg4[6]~reg0_q\ $end
$var wire 1 7" \display7seg4[2]~reg0_q\ $end
$var wire 1 8" \display7seg4[1]~reg0_q\ $end
$var wire 1 9" digit_var [3] $end
$var wire 1 :" digit_var [2] $end
$var wire 1 ;" digit_var [1] $end
$var wire 1 <" digit_var [0] $end
$var wire 1 =" num_erros [3] $end
$var wire 1 >" num_erros [2] $end
$var wire 1 ?" num_erros [1] $end
$var wire 1 @" num_erros [0] $end
$var wire 1 A" \ALT_INV_switches[8]~input_o\ $end
$var wire 1 B" \ALT_INV_switches[1]~input_o\ $end
$var wire 1 C" \ALT_INV_switches[0]~input_o\ $end
$var wire 1 D" \ALT_INV_switches[2]~input_o\ $end
$var wire 1 E" \ALT_INV_switches[4]~input_o\ $end
$var wire 1 F" \ALT_INV_switches[3]~input_o\ $end
$var wire 1 G" \ALT_INV_Equal10~0_combout\ $end
$var wire 1 H" \ALT_INV_Selector13~1_combout\ $end
$var wire 1 I" \ALT_INV_Selector13~0_combout\ $end
$var wire 1 J" \ALT_INV_Add0~1_combout\ $end
$var wire 1 K" \ALT_INV_Add0~0_combout\ $end
$var wire 1 L" \ALT_INV_num_erros[3]~2_combout\ $end
$var wire 1 M" \ALT_INV_num_erros[3]~1_combout\ $end
$var wire 1 N" \ALT_INV_num_erros[3]~0_combout\ $end
$var wire 1 O" \ALT_INV_Selector12~0_combout\ $end
$var wire 1 P" \ALT_INV_display7seg2~0_combout\ $end
$var wire 1 Q" \ALT_INV_Selector22~3_combout\ $end
$var wire 1 R" \ALT_INV_Selector22~2_combout\ $end
$var wire 1 S" \ALT_INV_Selector22~1_combout\ $end
$var wire 1 T" \ALT_INV_Selector22~0_combout\ $end
$var wire 1 U" \ALT_INV_Equal13~1_combout\ $end
$var wire 1 V" \ALT_INV_Selector21~5_combout\ $end
$var wire 1 W" \ALT_INV_Selector21~4_combout\ $end
$var wire 1 X" \ALT_INV_Selector21~3_combout\ $end
$var wire 1 Y" \ALT_INV_Selector21~2_combout\ $end
$var wire 1 Z" \ALT_INV_Equal13~0_combout\ $end
$var wire 1 [" \ALT_INV_LessThan0~0_combout\ $end
$var wire 1 \" \ALT_INV_Selector21~1_combout\ $end
$var wire 1 ]" \ALT_INV_Selector21~0_combout\ $end
$var wire 1 ^" \ALT_INV_Selector4~3_combout\ $end
$var wire 1 _" \ALT_INV_Selector14~0_combout\ $end
$var wire 1 `" \ALT_INV_estado.a~q\ $end
$var wire 1 a" \ALT_INV_Selector4~2_combout\ $end
$var wire 1 b" \ALT_INV_estado.b~q\ $end
$var wire 1 c" \ALT_INV_Selector4~1_combout\ $end
$var wire 1 d" \ALT_INV_estado.c~q\ $end
$var wire 1 e" \ALT_INV_Selector4~0_combout\ $end
$var wire 1 f" \ALT_INV_led_erro1~0_combout\ $end
$var wire 1 g" ALT_INV_num_erros [3] $end
$var wire 1 h" ALT_INV_num_erros [2] $end
$var wire 1 i" ALT_INV_num_erros [1] $end
$var wire 1 j" ALT_INV_num_erros [0] $end
$var wire 1 k" \ALT_INV_estado.d~q\ $end
$var wire 1 l" \ALT_INV_Selector2~1_combout\ $end
$var wire 1 m" \ALT_INV_Selector2~0_combout\ $end
$var wire 1 n" \ALT_INV_Equal7~1_combout\ $end
$var wire 1 o" ALT_INV_digit_var [3] $end
$var wire 1 p" ALT_INV_digit_var [2] $end
$var wire 1 q" ALT_INV_digit_var [1] $end
$var wire 1 r" ALT_INV_digit_var [0] $end
$var wire 1 s" \ALT_INV_Selector1~2_combout\ $end
$var wire 1 t" \ALT_INV_Selector1~1_combout\ $end
$var wire 1 u" \ALT_INV_Selector0~1_combout\ $end
$var wire 1 v" \ALT_INV_Selector0~0_combout\ $end
$var wire 1 w" \ALT_INV_Selector3~0_combout\ $end
$var wire 1 x" \ALT_INV_WideNor0~4_combout\ $end
$var wire 1 y" \ALT_INV_WideNor0~3_combout\ $end
$var wire 1 z" \ALT_INV_WideNor0~2_combout\ $end
$var wire 1 {" \ALT_INV_WideNor0~1_combout\ $end
$var wire 1 |" \ALT_INV_Selector1~0_combout\ $end
$var wire 1 }" \ALT_INV_Equal1~1_combout\ $end
$var wire 1 ~" \ALT_INV_Equal7~0_combout\ $end
$var wire 1 !# \ALT_INV_WideNor0~0_combout\ $end
$var wire 1 "# \ALT_INV_Equal6~0_combout\ $end
$var wire 1 ## \ALT_INV_Equal1~0_combout\ $end
$var wire 1 $# \ALT_INV_Equal2~0_combout\ $end
$var wire 1 %# \ALT_INV_Equal0~1_combout\ $end
$var wire 1 &# \ALT_INV_Equal0~0_combout\ $end
$var wire 1 '# \ALT_INV_led_erro3~reg0_q\ $end
$var wire 1 (# \ALT_INV_led_erro2~reg0_q\ $end
$var wire 1 )# \ALT_INV_switches[9]~input_o\ $end
$var wire 1 *# \ALT_INV_switches[6]~input_o\ $end
$var wire 1 +# \ALT_INV_switches[7]~input_o\ $end
$var wire 1 ,# \ALT_INV_switches[5]~input_o\ $end
$upscope $end
$upscope $end
$enddefinitions $end
#0
$dumpvars
0!
0>
0?
0@
0A
0L
1M
xN
1O
1P
1Q
1R
1S
1T
0U
0`
0a
0b
0c
x"!
0#!
0$!
0%!
0&!
0'!
0(!
0)!
1*!
0+!
0,!
0-!
1.!
1/!
00!
01!
12!
03!
14!
15!
06!
17!
08!
19!
0:!
1;!
0<!
1=!
0>!
0?!
0@!
1A!
0B!
0C!
1D!
0E!
0F!
0G!
0H!
1I!
0J!
0K!
0L!
0M!
0N!
0O!
1P!
0Q!
1R!
0S!
1T!
1U!
0V!
0W!
0X!
0Y!
0Z!
0[!
0\!
1]!
0^!
0_!
0`!
0a!
0b!
0c!
0d!
0e!
0f!
0g!
0h!
0i!
0j!
0k!
0l!
0m!
0n!
0o!
0p!
0q!
0r!
0s!
0t!
1u!
0v!
0w!
0x!
0y!
0z!
0{!
0|!
0}!
0~!
0!"
0""
0#"
0$"
0%"
0&"
0'"
0("
0)"
0*"
0+"
0,"
0-"
0."
0/"
00"
01"
02"
03"
04"
05"
06"
07"
08"
1A"
1B"
1C"
1D"
1E"
1F"
0G"
1H"
1I"
1J"
1K"
1L"
1M"
1N"
1O"
1P"
1Q"
1R"
1S"
1T"
1U"
1V"
1W"
1X"
1Y"
1Z"
0["
1\"
1]"
1^"
0_"
1`"
1a"
1b"
1c"
1d"
1e"
0f"
1k"
1l"
0m"
1n"
1s"
0t"
1u"
1v"
1w"
0x"
1y"
0z"
1{"
1|"
0}"
0~"
0!#
1"#
0##
0$#
0%#
0&#
1'#
1(#
1)#
1*#
1+#
1,#
0B
0C
0D
0E
0F
0G
0H
0I
0J
0K
0"
0#
0$
0%
0&
0'
0(
0)
0*
0+
0,
0-
0.
0/
00
01
02
03
04
05
06
07
08
09
0:
0;
0<
0=
0V
0W
0X
0Y
0Z
0[
0\
0]
0^
0_
0d
0e
0f
0g
0h
0i
0j
0k
0l
0m
0n
0o
0p
0q
0r
0s
0t
0u
0v
0w
0x
0y
0z
0{
0|
0}
0~
0!!
09"
0:"
0;"
0<"
0="
0>"
0?"
0@"
1g"
1h"
1i"
1j"
1o"
1p"
1q"
1r"
$end
#70000
1B
1V
1+!
0)#
0.!
16!
07!
1?!
0v"
1~"
0{"
1%#
0/!
09!
1@!
0u"
1z"
1$#
1C!
0D!
1F!
0U!
1c!
0u!
0^"
0N"
1G"
0w"
1y!
0R!
1J!
1d!
#80000
1!
1U
1#!
1$!
19"
1<"
1@"
1e!
1z!
0j"
0r"
0o"
0I!
1K!
0]!
1f!
0Z"
1["
1h
1a
1i!
1&
1?
0V"
1k!
#120000
0B
0V
0+!
1)#
1.!
06!
17!
0?!
1v"
0~"
1{"
0%#
1/!
19!
0@!
1u"
0z"
0$#
1@!
1u!
1w!
1{!
1#"
0u"
0u!
0w!
0{!
0#"
#160000
0!
0U
0#!
0$!
#210000
1C
1W
1(!
0A"
0*!
13!
1?!
0v"
0y"
1&#
0/!
04!
1x"
1$#
0C!
1w"
0y!
#240000
1!
1U
1#!
1$!
0<"
0@"
1?"
1l!
0z!
0(#
0i"
1j"
1r"
1I!
1m!
0U"
0h
1b
1p!
0&
1@
0Q"
1r!
#280000
0C
0W
0(!
1A"
1*!
03!
0?!
1v"
1y"
0&#
1/!
14!
0@!
1u"
0x"
0$#
1@!
1D!
0F!
1U!
0c!
0i!
0p!
1u!
1Q"
1V"
1^"
1N"
0G"
0u"
0D!
1F!
0U!
1c!
1i!
1p!
0u!
1R!
0J!
0r!
0Q"
0V"
0^"
0N"
1G"
0R!
1J!
1r!
#320000
0!
0U
0#!
0$!
#380000
1D
1X
1-!
0+#
0.!
18!
1:!
0n"
0|"
1%#
0/!
09!
0A!
0;!
1m"
1t"
1z"
1$#
0@!
1C!
1B!
1>!
0l"
0s"
0w"
1u"
1u!
1w!
1y!
1{!
#400000
1!
1U
1#!
1$!
1;"
09"
1:"
1<"
1@"
1s!
1v!
1x!
1z!
1|!
0'#
0j"
0r"
0p"
1o"
0q"
0I!
0K!
1L!
0P!
0T!
0f!
0m!
1t!
1)"
0O"
0P"
1U"
1Z"
1_"
1f"
0K"
1g
1h
1i
1j
1c
1M!
0F!
0c!
0y!
0i!
0p!
0u!
0{!
1!"
1#"
1%"
1'"
1-"
14"
1/"
11"
1(
1'
1&
1%
1A
1Q"
1V"
1^"
1N"
0J!
0M!
#430000
0D
0X
0-!
1+#
1.!
08!
0:!
1n"
1|"
0%#
1/!
19!
1A!
1;!
0m"
0t"
0z"
0$#
#480000
0!
0U
0#!
0$!
#540000
1E
1Y
1,!
0*#
0.!
07!
1<!
0"#
1~"
1%#
0/!
0=!
1!#
1$#
0C!
1w"
#560000
1!
1U
1#!
1$!
0<"
0v!
0z!
0|!
1""
1$"
1&"
1("
1*"
1+"
1,"
1."
10"
12"
13"
15"
17"
18"
1r"
1z
1{
1r
1s
1t
1u
1w
1k
1l
1m
1n
1p
1d
1e
0g
0h
0j
19
18
15
13
12
11
10
1.
1,
1+
1*
1)
0(
0&
0%
1#
1"
#600000
0E
0Y
0,!
1*#
1.!
17!
0<!
1"#
0~"
0%#
1/!
1=!
0B!
1s"
0!#
0$#
1B!
0s"
#640000
0!
0U
0#!
0$!
#720000
1!
1U
1#!
1$!
#800000
0!
0U
0#!
0$!
#880000
1!
1U
1#!
1$!
#960000
0!
0U
0#!
0$!
