simulation/qsim/fechadura.msim.vcd
$comment
	File created using the following command:
		vcd file fechadura.msim.vcd -direction
$end
$date
	Mon May 23 15:29:57 2022
$end
$version
	ModelSim Version 2020.1
$end
$timescale
	1ps
$end

$scope module fechadura_vhd_vec_tst $end
$var wire 1 ! clock $end
$var wire 1 " led_acerto $end
$var wire 1 # led_erro $end
$var wire 1 $ switches [9] $end
$var wire 1 % switches [8] $end
$var wire 1 & switches [7] $end
$var wire 1 ' switches [6] $end
$var wire 1 ( switches [5] $end
$var wire 1 ) switches [4] $end
$var wire 1 * switches [3] $end
$var wire 1 + switches [2] $end
$var wire 1 , switches [1] $end
$var wire 1 - switches [0] $end

$scope module i1 $end
$var wire 1 . gnd $end
$var wire 1 / vcc $end
$var wire 1 0 unknown $end
$var wire 1 1 devoe $end
$var wire 1 2 devclrn $end
$var wire 1 3 devpor $end
$var wire 1 4 ww_devoe $end
$var wire 1 5 ww_devclrn $end
$var wire 1 6 ww_devpor $end
$var wire 1 7 ww_clock $end
$var wire 1 8 ww_switches [9] $end
$var wire 1 9 ww_switches [8] $end
$var wire 1 : ww_switches [7] $end
$var wire 1 ; ww_switches [6] $end
$var wire 1 < ww_switches [5] $end
$var wire 1 = ww_switches [4] $end
$var wire 1 > ww_switches [3] $end
$var wire 1 ? ww_switches [2] $end
$var wire 1 @ ww_switches [1] $end
$var wire 1 A ww_switches [0] $end
$var wire 1 B ww_led_acerto $end
$var wire 1 C ww_led_erro $end
$var wire 1 D \~QUARTUS_CREATED_GND~I_combout\ $end
$var wire 1 E \clock~input_o\ $end
$var wire 1 F \clock~inputCLKENA0_outclk\ $end
$var wire 1 G \switches[9]~input_o\ $end
$var wire 1 H \switches[7]~input_o\ $end
$var wire 1 I \switches[2]~input_o\ $end
$var wire 1 J \switches[4]~input_o\ $end
$var wire 1 K \switches[0]~input_o\ $end
$var wire 1 L \switches[5]~input_o\ $end
$var wire 1 M \switches[3]~input_o\ $end
$var wire 1 N \Equal1~1_combout\ $end
$var wire 1 O \switches[6]~input_o\ $end
$var wire 1 P \switches[1]~input_o\ $end
$var wire 1 Q \switches[8]~input_o\ $end
$var wire 1 R \WideNor0~0_combout\ $end
$var wire 1 S \Equal0~0_combout\ $end
$var wire 1 T \Equal0~1_combout\ $end
$var wire 1 U \Equal2~0_combout\ $end
$var wire 1 V \Equal1~0_combout\ $end
$var wire 1 W \Equal7~0_combout\ $end
$var wire 1 X \Selector1~0_combout\ $end
$var wire 1 Y \WideNor0~1_combout\ $end
$var wire 1 Z \Equal7~1_combout\ $end
$var wire 1 [ \Equal6~0_combout\ $end
$var wire 1 \ \Selector2~0_combout\ $end
$var wire 1 ] \WideNor0~2_combout\ $end
$var wire 1 ^ \WideNor0~3_combout\ $end
$var wire 1 _ \Selector2~1_combout\ $end
$var wire 1 ` \Selector1~1_combout\ $end
$var wire 1 a \Selector0~0_combout\ $end
$var wire 1 b \Selector1~2_combout\ $end
$var wire 1 c \Selector0~1_combout\ $end
$var wire 1 d \Selector8~0_combout\ $end
$var wire 1 e \estado.a~feeder_combout\ $end
$var wire 1 f \estado.a~DUPLICATE_q\ $end
$var wire 1 g \Selector3~0_combout\ $end
$var wire 1 h \Selector4~0_combout\ $end
$var wire 1 i \estado.b~q\ $end
$var wire 1 j \Selector5~0_combout\ $end
$var wire 1 k \estado.c~q\ $end
$var wire 1 l \Selector6~0_combout\ $end
$var wire 1 m \estado.d~q\ $end
$var wire 1 n \estado.acerto~0_combout\ $end
$var wire 1 o \estado.acerto~q\ $end
$var wire 1 p \led_acerto~reg0_q\ $end
$var wire 1 q \Selector7~3_combout\ $end
$var wire 1 r \estado.a~q\ $end
$var wire 1 s \Selector7~2_combout\ $end
$var wire 1 t \Selector7~1_combout\ $end
$var wire 1 u \Selector7~0_combout\ $end
$var wire 1 v \Selector7~4_combout\ $end
$var wire 1 w \estado.erro~q\ $end
$var wire 1 x \led_erro~reg0_q\ $end
$var wire 1 y digit_var [3] $end
$var wire 1 z digit_var [2] $end
$var wire 1 { digit_var [1] $end
$var wire 1 | digit_var [0] $end
$var wire 1 } \ALT_INV_estado.a~DUPLICATE_q\ $end
$var wire 1 ~ \ALT_INV_switches[9]~input_o\ $end
$var wire 1 !! \ALT_INV_switches[6]~input_o\ $end
$var wire 1 "! \ALT_INV_switches[7]~input_o\ $end
$var wire 1 #! \ALT_INV_switches[5]~input_o\ $end
$var wire 1 $! \ALT_INV_switches[8]~input_o\ $end
$var wire 1 %! \ALT_INV_switches[1]~input_o\ $end
$var wire 1 &! \ALT_INV_switches[0]~input_o\ $end
$var wire 1 '! \ALT_INV_switches[4]~input_o\ $end
$var wire 1 (! \ALT_INV_switches[3]~input_o\ $end
$var wire 1 )! \ALT_INV_switches[2]~input_o\ $end
$var wire 1 *! \ALT_INV_Selector7~3_combout\ $end
$var wire 1 +! \ALT_INV_Selector7~2_combout\ $end
$var wire 1 ,! \ALT_INV_Selector7~1_combout\ $end
$var wire 1 -! \ALT_INV_estado.c~q\ $end
$var wire 1 .! \ALT_INV_Selector7~0_combout\ $end
$var wire 1 /! \ALT_INV_estado.b~q\ $end
$var wire 1 0! \ALT_INV_estado.a~q\ $end
$var wire 1 1! \ALT_INV_Selector2~1_combout\ $end
$var wire 1 2! \ALT_INV_Selector2~0_combout\ $end
$var wire 1 3! \ALT_INV_Equal7~1_combout\ $end
$var wire 1 4! ALT_INV_digit_var [3] $end
$var wire 1 5! ALT_INV_digit_var [2] $end
$var wire 1 6! ALT_INV_digit_var [1] $end
$var wire 1 7! ALT_INV_digit_var [0] $end
$var wire 1 8! \ALT_INV_Selector8~0_combout\ $end
$var wire 1 9! \ALT_INV_Selector1~1_combout\ $end
$var wire 1 :! \ALT_INV_Selector0~0_combout\ $end
$var wire 1 ;! \ALT_INV_estado.d~q\ $end
$var wire 1 <! \ALT_INV_Selector3~0_combout\ $end
$var wire 1 =! \ALT_INV_WideNor0~3_combout\ $end
$var wire 1 >! \ALT_INV_WideNor0~2_combout\ $end
$var wire 1 ?! \ALT_INV_Equal6~0_combout\ $end
$var wire 1 @! \ALT_INV_WideNor0~1_combout\ $end
$var wire 1 A! \ALT_INV_WideNor0~0_combout\ $end
$var wire 1 B! \ALT_INV_Equal1~1_combout\ $end
$var wire 1 C! \ALT_INV_Selector1~0_combout\ $end
$var wire 1 D! \ALT_INV_Equal7~0_combout\ $end
$var wire 1 E! \ALT_INV_Equal1~0_combout\ $end
$var wire 1 F! \ALT_INV_Equal2~0_combout\ $end
$var wire 1 G! \ALT_INV_Equal0~1_combout\ $end
$var wire 1 H! \ALT_INV_Equal0~0_combout\ $end
$var wire 1 I! \ALT_INV_estado.erro~q\ $end
$var wire 1 J! \ALT_INV_estado.acerto~q\ $end
$upscope $end
$upscope $end
$enddefinitions $end
#0
$dumpvars
0!
0"
0#
0.
1/
x0
11
12
13
14
15
16
07
0B
0C
xD
0E
0F
0G
0H
0I
0J
0K
0L
0M
1N
0O
0P
0Q
0R
1S
1T
1U
1V
1W
0X
1Y
0Z
0[
1\
0]
1^
0_
1`
0a
0b
0c
1d
1e
0f
0g
1h
0i
0j
0k
0l
0m
0n
0o
0p
1q
0r
0s
1t
0u
0v
0w
0x
1}
1~
1!!
1"!
1#!
1$!
1%!
1&!
1'!
1(!
1)!
0*!
1+!
0,!
1-!
1.!
1/!
10!
11!
02!
13!
08!
09!
1:!
1;!
1<!
0=!
1>!
1?!
0@!
1A!
0B!
1C!
0D!
0E!
0F!
0G!
0H!
1I!
1J!
0$
0%
0&
0'
0(
0)
0*
0+
0,
0-
08
09
0:
0;
0<
0=
0>
0?
0@
0A
0y
0z
0{
0|
14!
15!
16!
17!
$end
#20000
1-
1A
1K
0&!
0N
0U
1]
0>!
1F!
1B!
0^
1=!
#60000
1!
17
1E
1F
1f
1i
1r
00!
0/!
0}
0h
0q
1*!
1v
#110000
0-
0A
0K
1&!
1N
1U
0]
1>!
0F!
0B!
1^
0=!
#120000
0!
07
0E
0F
#140000
1,
1@
1P
0%!
1R
0S
1H!
0A!
0Y
0U
1F!
1@!
1g
1q
0*!
0<!
1j
0v
#180000
1!
17
1E
1F
1|
0i
1k
0-!
1/!
07!
0j
1u
1s
0t
1,!
0+!
0.!
1v
#240000
0!
0,
07
0@
0P
0E
0F
1%!
0R
1S
0H!
1A!
1Y
1U
0F!
0@!
#260000
1+
1?
1I
0)!
0N
0V
0\
0^
1=!
12!
1E!
1B!
1_
0g
0s
1+!
1<!
01!
1l
0v
#300000
1!
17
1E
1F
1{
0|
0k
1m
0;!
1-!
17!
06!
0l
0q
1*!
1v
#360000
0!
07
0E
0F
#380000
0+
0?
0I
1)!
1N
1V
1\
1^
0=!
02!
0E!
0B!
#400000
1*
1>
1M
0(!
0N
0V
0Y
0\
12!
1@!
1E!
1B!
1g
1q
0*!
0<!
1n
0v
#420000
1!
17
1E
1F
1|
0m
1o
0J!
1;!
07!
1t
0,!
#480000
0!
07
0E
0F
#500000
0*
0>
0M
1(!
1N
1V
1Y
1\
02!
0@!
0E!
0B!
#540000
1!
17
1E
1F
1p
1B
1"
#600000
0!
07
0E
0F
#660000
1!
17
1E
1F
#720000
0!
07
0E
0F
#780000
1!
17
1E
1F
#840000
0!
07
0E
0F
#900000
1!
17
1E
1F
#960000
0!
07
0E
0F
