simulation/qsim/fechadura.msim.vcd
$comment
	File created using the following command:
		vcd file fechadura.msim.vcd -direction
$end
$date
	Mon May 30 15:35:37 2022
$end
$version
	ModelSim Version 2020.1
$end
$timescale
	1ps
$end

$scope module fechadura_vhd_vec_tst $end
$var wire 1 ! clock $end
$var wire 1 " display7seg1 [0] $end
$var wire 1 # display7seg1 [1] $end
$var wire 1 $ display7seg1 [2] $end
$var wire 1 % display7seg1 [3] $end
$var wire 1 & display7seg1 [4] $end
$var wire 1 ' display7seg1 [5] $end
$var wire 1 ( display7seg1 [6] $end
$var wire 1 ) display7seg2 [0] $end
$var wire 1 * display7seg2 [1] $end
$var wire 1 + display7seg2 [2] $end
$var wire 1 , display7seg2 [3] $end
$var wire 1 - display7seg2 [4] $end
$var wire 1 . display7seg2 [5] $end
$var wire 1 / display7seg2 [6] $end
$var wire 1 0 display7seg3 [0] $end
$var wire 1 1 display7seg3 [1] $end
$var wire 1 2 display7seg3 [2] $end
$var wire 1 3 display7seg3 [3] $end
$var wire 1 4 display7seg3 [4] $end
$var wire 1 5 display7seg3 [5] $end
$var wire 1 6 display7seg3 [6] $end
$var wire 1 7 display7seg4 [0] $end
$var wire 1 8 display7seg4 [1] $end
$var wire 1 9 display7seg4 [2] $end
$var wire 1 : display7seg4 [3] $end
$var wire 1 ; display7seg4 [4] $end
$var wire 1 < display7seg4 [5] $end
$var wire 1 = display7seg4 [6] $end
$var wire 1 > led_acerto $end
$var wire 1 ? led_erro1 $end
$var wire 1 @ led_erro2 $end
$var wire 1 A led_erro3 $end
$var wire 1 B switches [9] $end
$var wire 1 C switches [8] $end
$var wire 1 D switches [7] $end
$var wire 1 E switches [6] $end
$var wire 1 F switches [5] $end
$var wire 1 G switches [4] $end
$var wire 1 H switches [3] $end
$var wire 1 I switches [2] $end
$var wire 1 J switches [1] $end
$var wire 1 K switches [0] $end

$scope module i1 $end
$var wire 1 L gnd $end
$var wire 1 M vcc $end
$var wire 1 N unknown $end
$var wire 1 O devoe $end
$var wire 1 P devclrn $end
$var wire 1 Q devpor $end
$var wire 1 R ww_devoe $end
$var wire 1 S ww_devclrn $end
$var wire 1 T ww_devpor $end
$var wire 1 U ww_clock $end
$var wire 1 V ww_switches [9] $end
$var wire 1 W ww_switches [8] $end
$var wire 1 X ww_switches [7] $end
$var wire 1 Y ww_switches [6] $end
$var wire 1 Z ww_switches [5] $end
$var wire 1 [ ww_switches [4] $end
$var wire 1 \ ww_switches [3] $end
$var wire 1 ] ww_switches [2] $end
$var wire 1 ^ ww_switches [1] $end
$var wire 1 _ ww_switches [0] $end
$var wire 1 ` ww_led_acerto $end
$var wire 1 a ww_led_erro1 $end
$var wire 1 b ww_led_erro2 $end
$var wire 1 c ww_led_erro3 $end
$var wire 1 d ww_display7seg1 [0] $end
$var wire 1 e ww_display7seg1 [1] $end
$var wire 1 f ww_display7seg1 [2] $end
$var wire 1 g ww_display7seg1 [3] $end
$var wire 1 h ww_display7seg1 [4] $end
$var wire 1 i ww_display7seg1 [5] $end
$var wire 1 j ww_display7seg1 [6] $end
$var wire 1 k ww_display7seg2 [0] $end
$var wire 1 l ww_display7seg2 [1] $end
$var wire 1 m ww_display7seg2 [2] $end
$var wire 1 n ww_display7seg2 [3] $end
$var wire 1 o ww_display7seg2 [4] $end
$var wire 1 p ww_display7seg2 [5] $end
$var wire 1 q ww_display7seg2 [6] $end
$var wire 1 r ww_display7seg3 [0] $end
$var wire 1 s ww_display7seg3 [1] $end
$var wire 1 t ww_display7seg3 [2] $end
$var wire 1 u ww_display7seg3 [3] $end
$var wire 1 v ww_display7seg3 [4] $end
$var wire 1 w ww_display7seg3 [5] $end
$var wire 1 x ww_display7seg3 [6] $end
$var wire 1 y ww_display7seg4 [0] $end
$var wire 1 z ww_display7seg4 [1] $end
$var wire 1 { ww_display7seg4 [2] $end
$var wire 1 | ww_display7seg4 [3] $end
$var wire 1 } ww_display7seg4 [4] $end
$var wire 1 ~ ww_display7seg4 [5] $end
$var wire 1 !! ww_display7seg4 [6] $end
$var wire 1 "! \~QUARTUS_CREATED_GND~I_combout\ $end
$var wire 1 #! \clock~input_o\ $end
$var wire 1 $! \clock~inputCLKENA0_outclk\ $end
$var wire 1 %! \switches[8]~input_o\ $end
$var wire 1 &! \switches[1]~input_o\ $end
$var wire 1 '! \switches[9]~input_o\ $end
$var wire 1 (! \switches[6]~input_o\ $end
$var wire 1 )! \switches[7]~input_o\ $end
$var wire 1 *! \Equal0~1_combout\ $end
$var wire 1 +! \switches[3]~input_o\ $end
$var wire 1 ,! \switches[2]~input_o\ $end
$var wire 1 -! \switches[4]~input_o\ $end
$var wire 1 .! \Equal1~0_combout\ $end
$var wire 1 /! \switches[0]~input_o\ $end
$var wire 1 0! \switches[5]~input_o\ $end
$var wire 1 1! \WideNor0~2_combout\ $end
$var wire 1 2! \Equal0~0_combout\ $end
$var wire 1 3! \Equal2~0_combout\ $end
$var wire 1 4! \Equal1~1_combout\ $end
$var wire 1 5! \Equal6~0_combout\ $end
$var wire 1 6! \WideNor0~3_combout\ $end
$var wire 1 7! \Equal7~0_combout\ $end
$var wire 1 8! \Selector1~0_combout\ $end
$var wire 1 9! \WideNor0~0_combout\ $end
$var wire 1 :! \WideNor0~1_combout\ $end
$var wire 1 ;! \Selector3~0_combout\ $end
$var wire 1 <! \Equal7~1_combout\ $end
$var wire 1 =! \Selector2~0_combout\ $end
$var wire 1 >! \Selector2~1_combout\ $end
$var wire 1 ?! \Selector1~1_combout\ $end
$var wire 1 @! \Selector1~2_combout\ $end
$var wire 1 A! \Selector0~0_combout\ $end
$var wire 1 B! \Selector0~1_combout\ $end
$var wire 1 C! \led_acerto~0_combout\ $end
$var wire 1 D! \Selector4~0_combout\ $end
$var wire 1 E! \estado.a~q\ $end
$var wire 1 F! \estado~10_combout\ $end
$var wire 1 G! \estado.b~q\ $end
$var wire 1 H! \Selector5~0_combout\ $end
$var wire 1 I! \estado.c~q\ $end
$var wire 1 J! \Selector6~0_combout\ $end
$var wire 1 K! \estado.d~q\ $end
$var wire 1 L! \led_acerto~1_combout\ $end
$var wire 1 M! \led_acerto~reg0_q\ $end
$var wire 1 N! \Selector7~1_combout\ $end
$var wire 1 O! \Selector7~2_combout\ $end
$var wire 1 P! \Selector7~0_combout\ $end
$var wire 1 Q! \Selector7~3_combout\ $end
$var wire 1 R! \Selector7~4_combout\ $end
$var wire 1 S! \led_erro1~reg0_q\ $end
$var wire 1 T! \Mux6~0_combout\ $end
$var wire 1 U! \display7seg1[6]~reg0_q\ $end
$var wire 1 V! \Mux5~0_combout\ $end
$var wire 1 W! \display7seg1[5]~reg0_q\ $end
$var wire 1 X! \Mux4~0_combout\ $end
$var wire 1 Y! \display7seg1[4]~reg0_q\ $end
$var wire 1 Z! \Mux3~0_combout\ $end
$var wire 1 [! \display7seg1[3]~reg0_q\ $end
$var wire 1 \! \Mux2~0_combout\ $end
$var wire 1 ]! \display7seg1[2]~reg0_q\ $end
$var wire 1 ^! \Mux1~0_combout\ $end
$var wire 1 _! \display7seg1[1]~reg0_q\ $end
$var wire 1 `! \Mux0~0_combout\ $end
$var wire 1 a! \display7seg1[0]~reg0_q\ $end
$var wire 1 b! digit_var [3] $end
$var wire 1 c! digit_var [2] $end
$var wire 1 d! digit_var [1] $end
$var wire 1 e! digit_var [0] $end
$var wire 1 f! \ALT_INV_switches[9]~input_o\ $end
$var wire 1 g! \ALT_INV_switches[6]~input_o\ $end
$var wire 1 h! \ALT_INV_switches[7]~input_o\ $end
$var wire 1 i! \ALT_INV_switches[5]~input_o\ $end
$var wire 1 j! \ALT_INV_switches[8]~input_o\ $end
$var wire 1 k! \ALT_INV_switches[1]~input_o\ $end
$var wire 1 l! \ALT_INV_switches[0]~input_o\ $end
$var wire 1 m! \ALT_INV_switches[2]~input_o\ $end
$var wire 1 n! \ALT_INV_switches[4]~input_o\ $end
$var wire 1 o! \ALT_INV_switches[3]~input_o\ $end
$var wire 1 p! \ALT_INV_Selector0~1_combout\ $end
$var wire 1 q! \ALT_INV_Selector1~2_combout\ $end
$var wire 1 r! \ALT_INV_Selector7~3_combout\ $end
$var wire 1 s! \ALT_INV_Selector7~2_combout\ $end
$var wire 1 t! \ALT_INV_Selector7~1_combout\ $end
$var wire 1 u! \ALT_INV_estado.c~q\ $end
$var wire 1 v! \ALT_INV_Selector7~0_combout\ $end
$var wire 1 w! \ALT_INV_estado.b~q\ $end
$var wire 1 x! \ALT_INV_estado.a~q\ $end
$var wire 1 y! \ALT_INV_Selector2~1_combout\ $end
$var wire 1 z! \ALT_INV_Selector2~0_combout\ $end
$var wire 1 {! \ALT_INV_Equal7~1_combout\ $end
$var wire 1 |! ALT_INV_digit_var [3] $end
$var wire 1 }! ALT_INV_digit_var [2] $end
$var wire 1 ~! ALT_INV_digit_var [1] $end
$var wire 1 !" ALT_INV_digit_var [0] $end
$var wire 1 "" \ALT_INV_led_acerto~0_combout\ $end
$var wire 1 #" \ALT_INV_Selector1~1_combout\ $end
$var wire 1 $" \ALT_INV_Selector0~0_combout\ $end
$var wire 1 %" \ALT_INV_estado.d~q\ $end
$var wire 1 &" \ALT_INV_Selector3~0_combout\ $end
$var wire 1 '" \ALT_INV_WideNor0~3_combout\ $end
$var wire 1 (" \ALT_INV_WideNor0~2_combout\ $end
$var wire 1 )" \ALT_INV_Equal6~0_combout\ $end
$var wire 1 *" \ALT_INV_WideNor0~1_combout\ $end
$var wire 1 +" \ALT_INV_WideNor0~0_combout\ $end
$var wire 1 ," \ALT_INV_Equal1~1_combout\ $end
$var wire 1 -" \ALT_INV_Selector1~0_combout\ $end
$var wire 1 ." \ALT_INV_Equal1~0_combout\ $end
$var wire 1 /" \ALT_INV_Equal7~0_combout\ $end
$var wire 1 0" \ALT_INV_Equal2~0_combout\ $end
$var wire 1 1" \ALT_INV_Equal0~1_combout\ $end
$var wire 1 2" \ALT_INV_Equal0~0_combout\ $end
$upscope $end
$upscope $end
$enddefinitions $end
#0
$dumpvars
0!
0>
0?
0@
0A
0L
1M
xN
1O
1P
1Q
1R
1S
1T
0U
0`
0a
0b
0c
x"!
0#!
0$!
0%!
0&!
1'!
0(!
0)!
0*!
0+!
0,!
0-!
1.!
0/!
00!
01!
12!
03!
14!
05!
16!
07!
08!
19!
0:!
1;!
0<!
1=!
0>!
1?!
0@!
1A!
1B!
0C!
0D!
0E!
0F!
0G!
0H!
0I!
0J!
0K!
0L!
0M!
1N!
0O!
0P!
1Q!
1R!
0S!
0T!
0U!
0V!
0W!
1X!
0Y!
0Z!
0[!
0\!
0]!
0^!
0_!
0`!
0a!
0f!
1g!
1h!
1i!
1j!
1k!
1l!
1m!
1n!
1o!
0p!
1q!
0r!
1s!
0t!
1u!
1v!
1w!
1x!
1y!
0z!
1{!
1""
0#"
0$"
1%"
0&"
0'"
1("
1)"
1*"
0+"
0,"
1-"
0."
1/"
10"
11"
02"
1B
0C
0D
0E
0F
0G
0H
0I
0J
0K
1V
0W
0X
0Y
0Z
0[
0\
0]
0^
0_
0d
0e
0f
0g
0h
0i
0j
0k
0l
0m
0n
0o
0p
0q
0r
0s
0t
0u
0v
0w
0x
0y
0z
0{
0|
0}
0~
0!!
0b!
0c!
0d!
0e!
1|!
1}!
1~!
1!"
0"
0#
0$
0%
0&
0'
0(
0)
0*
0+
0,
0-
0.
0/
00
01
02
03
04
05
06
07
08
09
0:
0;
0<
0=
$end
#60000
1!
1U
1#!
1$!
1e!
1b!
1S!
1Y!
0|!
0!"
1h
1a
1&
1?
#120000
0!
0U
0#!
0$!
#180000
1!
1U
1#!
1$!
#240000
0!
0U
0#!
0$!
#300000
1!
1U
1#!
1$!
#360000
0!
0U
0#!
0$!
#420000
1!
1U
1#!
1$!
#480000
0!
0U
0#!
0$!
#540000
1!
1U
1#!
1$!
#600000
0!
0U
0#!
0$!
#660000
1!
1U
1#!
1$!
#720000
0!
0U
0#!
0$!
#780000
1!
1U
1#!
1$!
#840000
0!
0U
0#!
0$!
#900000
1!
1U
1#!
1$!
#960000
0!
0U
0#!
0$!
